…
    mean_per_day <- 
      archivo_entrada %>%
      group_by(date) %>%
      filter(!is.na(steps)) %>%  
      summarize(mean_steps = sum(steps)/mean_overall)

    median_per_day <- 
      archivo_entrada %>%
      group_by(date) %>%
      filter(!is.na(steps)) %>%
      summarize(median_steps = sum(steps)/2)

    mean_per_day

    ## # A tibble: 53 x 2
    ##    date       mean_steps
    ##    <fct>           <dbl>
    ##  1 2012-10-02     0.0135
    ##  2 2012-10-03     1.21  
    ##  3 2012-10-04     1.30  
    ##  4 2012-10-05     1.42  
    ##  5 2012-10-06     1.65  
    ##  6 2012-10-07     1.18  
    ##  7 2012-10-09     1.37  
    ##  8 2012-10-10     1.06  
    ##  9 2012-10-11     1.10  
    ## 10 2012-10-12     1.86  
    ## # ... with 43 more rows

    median_per_day

    ## # A tibble: 53 x 2
    ##    date       median_steps
    ##    <fct>             <dbl>
    ##  1 2012-10-02         63.0
    ##  2 2012-10-03       5676. 
    ##  3 2012-10-04       6058. 
    ##  4 2012-10-05       6647. 
    ##  5 2012-10-06       7710. 
    ##  6 2012-10-07       5508. 
    ##  7 2012-10-09       6406. 
    ##  8 2012-10-10       4950. 
    ##  9 2012-10-11       5152. 
    ## 10 2012-10-12       8691. 
    ## # ... with 43 more rows
…
